Testbench/output.txt
WARNING: ../Memories/mem.v:19: $readmemh: Standard inconsistency, following 1364-2005.
WARNING: ../Memories/mem.v:75: $readmemh: Standard inconsistency, following 1364-2005.
VCD info: dumpfile ZSOC.vcd opened for output.
Set 0 - Way 0: V=0 D=x TAG=Xxxxxxxx DATA=xxxxxxxx
Set 0 - Way 1: V=0 D=x TAG=Xxxxxxxx DATA=xxxxxxxx
Set 1 - Way 0: V=0 D=x TAG=Xxxxxxxx DATA=xxxxxxxx
Set 1 - Way 1: V=0 D=x TAG=Xxxxxxxx DATA=xxxxxxxx
Set 2 - Way 0: V=0 D=x TAG=Xxxxxxxx DATA=xxxxxxxx
Set 2 - Way 1: V=0 D=x TAG=Xxxxxxxx DATA=xxxxxxxx
Set 3 - Way 0: V=0 D=x TAG=Xxxxxxxx DATA=xxxxxxxx
Set 3 - Way 1: V=0 D=x TAG=Xxxxxxxx DATA=xxxxxxxx
Set 4 - Way 0: V=0 D=x TAG=Xxxxxxxx DATA=xxxxxxxx
Set 4 - Way 1: V=0 D=x TAG=Xxxxxxxx DATA=xxxxxxxx
Set 5 - Way 0: V=0 D=x TAG=Xxxxxxxx DATA=xxxxxxxx
Set 5 - Way 1: V=0 D=x TAG=Xxxxxxxx DATA=xxxxxxxx
Set 6 - Way 0: V=0 D=x TAG=Xxxxxxxx DATA=xxxxxxxx
Set 6 - Way 1: V=0 D=x TAG=Xxxxxxxx DATA=xxxxxxxx
Set 7 - Way 0: V=0 D=x TAG=Xxxxxxxx DATA=xxxxxxxx
Set 7 - Way 1: V=0 D=x TAG=Xxxxxxxx DATA=xxxxxxxx
added 00000000...
Set 0 - Way 0: V=0 D=x TAG=Xxxxxxxx DATA=xxxxxxxx
Set 0 - Way 1: V=0 D=0 TAG=00000000 DATA=xxxxxxxx
Set 1 - Way 0: V=0 D=x TAG=Xxxxxxxx DATA=xxxxxxxx
Set 1 - Way 1: V=0 D=x TAG=Xxxxxxxx DATA=xxxxxxxx
Set 2 - Way 0: V=0 D=x TAG=Xxxxxxxx DATA=xxxxxxxx
Set 2 - Way 1: V=0 D=x TAG=Xxxxxxxx DATA=xxxxxxxx
Set 3 - Way 0: V=0 D=x TAG=Xxxxxxxx DATA=xxxxxxxx
Set 3 - Way 1: V=0 D=x TAG=Xxxxxxxx DATA=xxxxxxxx
Set 4 - Way 0: V=0 D=x TAG=Xxxxxxxx DATA=xxxxxxxx
Set 4 - Way 1: V=0 D=x TAG=Xxxxxxxx DATA=xxxxxxxx
Set 5 - Way 0: V=0 D=x TAG=Xxxxxxxx DATA=xxxxxxxx
Set 5 - Way 1: V=0 D=x TAG=Xxxxxxxx DATA=xxxxxxxx
Set 6 - Way 0: V=0 D=x TAG=Xxxxxxxx DATA=xxxxxxxx
Set 6 - Way 1: V=0 D=x TAG=Xxxxxxxx DATA=xxxxxxxx
Set 7 - Way 0: V=0 D=x TAG=Xxxxxxxx DATA=xxxxxxxx
Set 7 - Way 1: V=0 D=x TAG=Xxxxxxxx DATA=xxxxxxxx
added 00000000...
Set 0 - Way 0: V=1 D=0 TAG=00000000 DATA=04500594
Set 0 - Way 1: V=0 D=0 TAG=00000000 DATA=xxxxxxxx
Set 1 - Way 0: V=0 D=x TAG=Xxxxxxxx DATA=xxxxxxxx
Set 1 - Way 1: V=0 D=x TAG=Xxxxxxxx DATA=xxxxxxxx
Set 2 - Way 0: V=0 D=x TAG=Xxxxxxxx DATA=xxxxxxxx
Set 2 - Way 1: V=0 D=x TAG=Xxxxxxxx DATA=xxxxxxxx
Set 3 - Way 0: V=0 D=x TAG=Xxxxxxxx DATA=xxxxxxxx
Set 3 - Way 1: V=0 D=x TAG=Xxxxxxxx DATA=xxxxxxxx
Set 4 - Way 0: V=0 D=x TAG=Xxxxxxxx DATA=xxxxxxxx
Set 4 - Way 1: V=0 D=x TAG=Xxxxxxxx DATA=xxxxxxxx
Set 5 - Way 0: V=0 D=x TAG=Xxxxxxxx DATA=xxxxxxxx
Set 5 - Way 1: V=0 D=x TAG=Xxxxxxxx DATA=xxxxxxxx
Set 6 - Way 0: V=0 D=x TAG=Xxxxxxxx DATA=xxxxxxxx
Set 6 - Way 1: V=0 D=x TAG=Xxxxxxxx DATA=xxxxxxxx
Set 7 - Way 0: V=0 D=x TAG=Xxxxxxxx DATA=xxxxxxxx
Set 7 - Way 1: V=0 D=x TAG=Xxxxxxxx DATA=xxxxxxxx
added 00000004...
Set 0 - Way 0: V=1 D=0 TAG=00000000 DATA=04500594
Set 0 - Way 1: V=0 D=0 TAG=00000000 DATA=xxxxxxxx
Set 1 - Way 0: V=1 D=0 TAG=00000000 DATA=04500593
Set 1 - Way 1: V=0 D=x TAG=Xxxxxxxx DATA=xxxxxxxx
Set 2 - Way 0: V=0 D=x TAG=Xxxxxxxx DATA=xxxxxxxx
Set 2 - Way 1: V=0 D=x TAG=Xxxxxxxx DATA=xxxxxxxx
Set 3 - Way 0: V=0 D=x TAG=Xxxxxxxx DATA=xxxxxxxx
Set 3 - Way 1: V=0 D=x TAG=Xxxxxxxx DATA=xxxxxxxx
Set 4 - Way 0: V=0 D=x TAG=Xxxxxxxx DATA=xxxxxxxx
Set 4 - Way 1: V=0 D=x TAG=Xxxxxxxx DATA=xxxxxxxx
Set 5 - Way 0: V=0 D=x TAG=Xxxxxxxx DATA=xxxxxxxx
Set 5 - Way 1: V=0 D=x TAG=Xxxxxxxx DATA=xxxxxxxx
Set 6 - Way 0: V=0 D=x TAG=Xxxxxxxx DATA=xxxxxxxx
Set 6 - Way 1: V=0 D=x TAG=Xxxxxxxx DATA=xxxxxxxx
Set 7 - Way 0: V=0 D=x TAG=Xxxxxxxx DATA=xxxxxxxx
Set 7 - Way 1: V=0 D=x TAG=Xxxxxxxx DATA=xxxxxxxx
added 00000008...
Set 0 - Way 0: V=1 D=0 TAG=00000000 DATA=04500594
Set 0 - Way 1: V=0 D=0 TAG=00000000 DATA=xxxxxxxx
Set 1 - Way 0: V=1 D=0 TAG=00000000 DATA=04500593
Set 1 - Way 1: V=0 D=x TAG=Xxxxxxxx DATA=xxxxxxxx
Set 2 - Way 0: V=1 D=0 TAG=00000000 DATA=01000093
Set 2 - Way 1: V=0 D=x TAG=Xxxxxxxx DATA=xxxxxxxx
Set 3 - Way 0: V=0 D=x TAG=Xxxxxxxx DATA=xxxxxxxx
Set 3 - Way 1: V=0 D=x TAG=Xxxxxxxx DATA=xxxxxxxx
Set 4 - Way 0: V=0 D=x TAG=Xxxxxxxx DATA=xxxxxxxx
Set 4 - Way 1: V=0 D=x TAG=Xxxxxxxx DATA=xxxxxxxx
Set 5 - Way 0: V=0 D=x TAG=Xxxxxxxx DATA=xxxxxxxx
Set 5 - Way 1: V=0 D=x TAG=Xxxxxxxx DATA=xxxxxxxx
Set 6 - Way 0: V=0 D=x TAG=Xxxxxxxx DATA=xxxxxxxx
Set 6 - Way 1: V=0 D=x TAG=Xxxxxxxx DATA=xxxxxxxx
Set 7 - Way 0: V=0 D=x TAG=Xxxxxxxx DATA=xxxxxxxx
Set 7 - Way 1: V=0 D=x TAG=Xxxxxxxx DATA=xxxxxxxx
added 0000000c...
Set 0 - Way 0: V=1 D=0 TAG=00000000 DATA=04500594
Set 0 - Way 1: V=0 D=0 TAG=00000000 DATA=xxxxxxxx
Set 1 - Way 0: V=1 D=0 TAG=00000000 DATA=04500593
Set 1 - Way 1: V=0 D=x TAG=Xxxxxxxx DATA=xxxxxxxx
Set 2 - Way 0: V=1 D=0 TAG=00000000 DATA=01000093
Set 2 - Way 1: V=0 D=x TAG=Xxxxxxxx DATA=xxxxxxxx
Set 3 - Way 0: V=1 D=0 TAG=00000000 DATA=04500593
Set 3 - Way 1: V=0 D=x TAG=Xxxxxxxx DATA=xxxxxxxx
Set 4 - Way 0: V=0 D=x TAG=Xxxxxxxx DATA=xxxxxxxx
Set 4 - Way 1: V=0 D=x TAG=Xxxxxxxx DATA=xxxxxxxx
Set 5 - Way 0: V=0 D=x TAG=Xxxxxxxx DATA=xxxxxxxx
Set 5 - Way 1: V=0 D=x TAG=Xxxxxxxx DATA=xxxxxxxx
Set 6 - Way 0: V=0 D=x TAG=Xxxxxxxx DATA=xxxxxxxx
Set 6 - Way 1: V=0 D=x TAG=Xxxxxxxx DATA=xxxxxxxx
Set 7 - Way 0: V=0 D=x TAG=Xxxxxxxx DATA=xxxxxxxx
Set 7 - Way 1: V=0 D=x TAG=Xxxxxxxx DATA=xxxxxxxx
added 00000010...
Set 0 - Way 0: V=1 D=0 TAG=00000000 DATA=04500594
Set 0 - Way 1: V=0 D=0 TAG=00000000 DATA=xxxxxxxx
Set 1 - Way 0: V=1 D=0 TAG=00000000 DATA=04500593
Set 1 - Way 1: V=0 D=x TAG=Xxxxxxxx DATA=xxxxxxxx
Set 2 - Way 0: V=1 D=0 TAG=00000000 DATA=01000093
Set 2 - Way 1: V=0 D=x TAG=Xxxxxxxx DATA=xxxxxxxx
Set 3 - Way 0: V=1 D=0 TAG=00000000 DATA=04500593
Set 3 - Way 1: V=0 D=x TAG=Xxxxxxxx DATA=xxxxxxxx
Set 4 - Way 0: V=1 D=0 TAG=00000000 DATA=04500593
Set 4 - Way 1: V=0 D=x TAG=Xxxxxxxx DATA=xxxxxxxx
Set 5 - Way 0: V=0 D=x TAG=Xxxxxxxx DATA=xxxxxxxx
Set 5 - Way 1: V=0 D=x TAG=Xxxxxxxx DATA=xxxxxxxx
Set 6 - Way 0: V=0 D=x TAG=Xxxxxxxx DATA=xxxxxxxx
Set 6 - Way 1: V=0 D=x TAG=Xxxxxxxx DATA=xxxxxxxx
Set 7 - Way 0: V=0 D=x TAG=Xxxxxxxx DATA=xxxxxxxx
Set 7 - Way 1: V=0 D=x TAG=Xxxxxxxx DATA=xxxxxxxx
added 00000014...
Set 0 - Way 0: V=1 D=0 TAG=00000000 DATA=04500594
Set 0 - Way 1: V=0 D=0 TAG=00000000 DATA=xxxxxxxx
Set 1 - Way 0: V=1 D=0 TAG=00000000 DATA=04500593
Set 1 - Way 1: V=0 D=x TAG=Xxxxxxxx DATA=xxxxxxxx
Set 2 - Way 0: V=1 D=0 TAG=00000000 DATA=01000093
Set 2 - Way 1: V=0 D=x TAG=Xxxxxxxx DATA=xxxxxxxx
Set 3 - Way 0: V=1 D=0 TAG=00000000 DATA=04500593
Set 3 - Way 1: V=0 D=x TAG=Xxxxxxxx DATA=xxxxxxxx
Set 4 - Way 0: V=1 D=0 TAG=00000000 DATA=04500593
Set 4 - Way 1: V=0 D=x TAG=Xxxxxxxx DATA=xxxxxxxx
Set 5 - Way 0: V=1 D=0 TAG=00000000 DATA=04500593
Set 5 - Way 1: V=0 D=x TAG=Xxxxxxxx DATA=xxxxxxxx
Set 6 - Way 0: V=0 D=x TAG=Xxxxxxxx DATA=xxxxxxxx
Set 6 - Way 1: V=0 D=x TAG=Xxxxxxxx DATA=xxxxxxxx
Set 7 - Way 0: V=0 D=x TAG=Xxxxxxxx DATA=xxxxxxxx
Set 7 - Way 1: V=0 D=x TAG=Xxxxxxxx DATA=xxxxxxxx
added 00000018...
Set 0 - Way 0: V=1 D=0 TAG=00000000 DATA=04500594
Set 0 - Way 1: V=0 D=0 TAG=00000000 DATA=xxxxxxxx
Set 1 - Way 0: V=1 D=0 TAG=00000000 DATA=04500593
Set 1 - Way 1: V=0 D=x TAG=Xxxxxxxx DATA=xxxxxxxx
Set 2 - Way 0: V=1 D=0 TAG=00000000 DATA=01000093
Set 2 - Way 1: V=0 D=x TAG=Xxxxxxxx DATA=xxxxxxxx
Set 3 - Way 0: V=1 D=0 TAG=00000000 DATA=04500593
Set 3 - Way 1: V=0 D=x TAG=Xxxxxxxx DATA=xxxxxxxx
Set 4 - Way 0: V=1 D=0 TAG=00000000 DATA=04500593
Set 4 - Way 1: V=0 D=x TAG=Xxxxxxxx DATA=xxxxxxxx
Set 5 - Way 0: V=1 D=0 TAG=00000000 DATA=04500593
Set 5 - Way 1: V=0 D=x TAG=Xxxxxxxx DATA=xxxxxxxx
Set 6 - Way 0: V=1 D=0 TAG=00000000 DATA=00c10283
Set 6 - Way 1: V=0 D=x TAG=Xxxxxxxx DATA=xxxxxxxx
Set 7 - Way 0: V=0 D=x TAG=Xxxxxxxx DATA=xxxxxxxx
Set 7 - Way 1: V=0 D=x TAG=Xxxxxxxx DATA=xxxxxxxx
added 0000001c...
Set 0 - Way 0: V=1 D=0 TAG=00000000 DATA=04500594
Set 0 - Way 1: V=0 D=0 TAG=00000000 DATA=xxxxxxxx
Set 1 - Way 0: V=1 D=0 TAG=00000000 DATA=04500593
Set 1 - Way 1: V=0 D=x TAG=Xxxxxxxx DATA=xxxxxxxx
Set 2 - Way 0: V=1 D=0 TAG=00000000 DATA=01000093
Set 2 - Way 1: V=0 D=x TAG=Xxxxxxxx DATA=xxxxxxxx
Set 3 - Way 0: V=1 D=0 TAG=00000000 DATA=04500593
Set 3 - Way 1: V=0 D=x TAG=Xxxxxxxx DATA=xxxxxxxx
Set 4 - Way 0: V=1 D=0 TAG=00000000 DATA=04500593
Set 4 - Way 1: V=0 D=x TAG=Xxxxxxxx DATA=xxxxxxxx
Set 5 - Way 0: V=1 D=0 TAG=00000000 DATA=04500593
Set 5 - Way 1: V=0 D=x TAG=Xxxxxxxx DATA=xxxxxxxx
Set 6 - Way 0: V=1 D=0 TAG=00000000 DATA=00c10283
Set 6 - Way 1: V=0 D=x TAG=Xxxxxxxx DATA=xxxxxxxx
Set 7 - Way 0: V=1 D=0 TAG=00000000 DATA=04500593
Set 7 - Way 1: V=0 D=x TAG=Xxxxxxxx DATA=xxxxxxxx
added 00000020...
Set 0 - Way 0: V=1 D=0 TAG=00000000 DATA=04500594
Set 0 - Way 1: V=1 D=0 TAG=00000001 DATA=04500593
Set 1 - Way 0: V=1 D=0 TAG=00000000 DATA=04500593
Set 1 - Way 1: V=0 D=x TAG=Xxxxxxxx DATA=xxxxxxxx
Set 2 - Way 0: V=1 D=0 TAG=00000000 DATA=01000093
Set 2 - Way 1: V=0 D=x TAG=Xxxxxxxx DATA=xxxxxxxx
Set 3 - Way 0: V=1 D=0 TAG=00000000 DATA=04500593
Set 3 - Way 1: V=0 D=x TAG=Xxxxxxxx DATA=xxxxxxxx
Set 4 - Way 0: V=1 D=0 TAG=00000000 DATA=04500593
Set 4 - Way 1: V=0 D=x TAG=Xxxxxxxx DATA=xxxxxxxx
Set 5 - Way 0: V=1 D=0 TAG=00000000 DATA=04500593
Set 5 - Way 1: V=0 D=x TAG=Xxxxxxxx DATA=xxxxxxxx
Set 6 - Way 0: V=1 D=0 TAG=00000000 DATA=00c10283
Set 6 - Way 1: V=0 D=x TAG=Xxxxxxxx DATA=xxxxxxxx
Set 7 - Way 0: V=1 D=0 TAG=00000000 DATA=04500593
Set 7 - Way 1: V=0 D=x TAG=Xxxxxxxx DATA=xxxxxxxx
added 00000024...
$$
pulled data 00000000 from 0000010c
$$
Set 0 - Way 0: V=0 D=x TAG=Xxxxxxxx DATA=xxxxxxxx
Set 0 - Way 1: V=0 D=x TAG=Xxxxxxxx DATA=xxxxxxxx
Set 1 - Way 0: V=0 D=x TAG=Xxxxxxxx DATA=xxxxxxxx
Set 1 - Way 1: V=0 D=x TAG=Xxxxxxxx DATA=xxxxxxxx
Set 2 - Way 0: V=0 D=x TAG=Xxxxxxxx DATA=xxxxxxxx
Set 2 - Way 1: V=0 D=x TAG=Xxxxxxxx DATA=xxxxxxxx
Set 3 - Way 0: V=0 D=x TAG=Xxxxxxxx DATA=xxxxxxxx
Set 3 - Way 1: V=0 D=x TAG=Xxxxxxxx DATA=xxxxxxxx
Set 4 - Way 0: V=0 D=x TAG=Xxxxxxxx DATA=xxxxxxxx
Set 4 - Way 1: V=0 D=x TAG=Xxxxxxxx DATA=xxxxxxxx
Set 5 - Way 0: V=0 D=x TAG=Xxxxxxxx DATA=xxxxxxxx
Set 5 - Way 1: V=0 D=x TAG=Xxxxxxxx DATA=xxxxxxxx
Set 6 - Way 0: V=0 D=x TAG=Xxxxxxxx DATA=xxxxxxxx
Set 6 - Way 1: V=0 D=x TAG=Xxxxxxxx DATA=xxxxxxxx
Set 7 - Way 0: V=0 D=x TAG=Xxxxxxxx DATA=xxxxxxxx
Set 7 - Way 1: V=0 D=x TAG=Xxxxxxxx DATA=xxxxxxxx
added 00000430...
Set 0 - Way 0: V=1 D=0 TAG=00000000 DATA=04500594
Set 0 - Way 1: V=1 D=0 TAG=00000001 DATA=04500593
Set 1 - Way 0: V=1 D=0 TAG=00000000 DATA=04500593
Set 1 - Way 1: V=1 D=0 TAG=00000001 DATA=04500593
Set 2 - Way 0: V=1 D=0 TAG=00000000 DATA=01000093
Set 2 - Way 1: V=0 D=x TAG=Xxxxxxxx DATA=xxxxxxxx
Set 3 - Way 0: V=1 D=0 TAG=00000000 DATA=04500593
Set 3 - Way 1: V=0 D=x TAG=Xxxxxxxx DATA=xxxxxxxx
Set 4 - Way 0: V=1 D=0 TAG=00000000 DATA=04500593
Set 4 - Way 1: V=0 D=x TAG=Xxxxxxxx DATA=xxxxxxxx
Set 5 - Way 0: V=1 D=0 TAG=00000000 DATA=04500593
Set 5 - Way 1: V=0 D=x TAG=Xxxxxxxx DATA=xxxxxxxx
Set 6 - Way 0: V=1 D=0 TAG=00000000 DATA=00c10283
Set 6 - Way 1: V=0 D=x TAG=Xxxxxxxx DATA=xxxxxxxx
Set 7 - Way 0: V=1 D=0 TAG=00000000 DATA=04500593
Set 7 - Way 1: V=0 D=x TAG=Xxxxxxxx DATA=xxxxxxxx
added 00000028...
$$
pulled data 00000000 from 0000010c
$$
Set 0 - Way 0: V=0 D=x TAG=Xxxxxxxx DATA=xxxxxxxx
Set 0 - Way 1: V=0 D=x TAG=Xxxxxxxx DATA=xxxxxxxx
Set 1 - Way 0: V=0 D=x TAG=Xxxxxxxx DATA=xxxxxxxx
Set 1 - Way 1: V=0 D=x TAG=Xxxxxxxx DATA=xxxxxxxx
Set 2 - Way 0: V=0 D=x TAG=Xxxxxxxx DATA=xxxxxxxx
Set 2 - Way 1: V=0 D=x TAG=Xxxxxxxx DATA=xxxxxxxx
Set 3 - Way 0: V=0 D=x TAG=Xxxxxxxx DATA=xxxxxxxx
Set 3 - Way 1: V=0 D=x TAG=Xxxxxxxx DATA=xxxxxxxx
Set 4 - Way 0: V=0 D=x TAG=Xxxxxxxx DATA=xxxxxxxx
Set 4 - Way 1: V=0 D=0 TAG=00000021 DATA=xxxxxxxx
Set 5 - Way 0: V=0 D=x TAG=Xxxxxxxx DATA=xxxxxxxx
Set 5 - Way 1: V=0 D=x TAG=Xxxxxxxx DATA=xxxxxxxx
Set 6 - Way 0: V=0 D=x TAG=Xxxxxxxx DATA=xxxxxxxx
Set 6 - Way 1: V=0 D=x TAG=Xxxxxxxx DATA=xxxxxxxx
Set 7 - Way 0: V=0 D=x TAG=Xxxxxxxx DATA=xxxxxxxx
Set 7 - Way 1: V=0 D=x TAG=Xxxxxxxx DATA=xxxxxxxx
added 00000430...
Set 0 - Way 0: V=1 D=0 TAG=00000000 DATA=04500594
Set 0 - Way 1: V=1 D=0 TAG=00000001 DATA=04500593
Set 1 - Way 0: V=1 D=0 TAG=00000000 DATA=04500593
Set 1 - Way 1: V=1 D=0 TAG=00000001 DATA=04500593
Set 2 - Way 0: V=1 D=0 TAG=00000000 DATA=01000093
Set 2 - Way 1: V=1 D=0 TAG=00000001 DATA=04500593
Set 3 - Way 0: V=1 D=0 TAG=00000000 DATA=04500593
Set 3 - Way 1: V=0 D=x TAG=Xxxxxxxx DATA=xxxxxxxx
Set 4 - Way 0: V=1 D=0 TAG=00000000 DATA=04500593
Set 4 - Way 1: V=0 D=x TAG=Xxxxxxxx DATA=xxxxxxxx
Set 5 - Way 0: V=1 D=0 TAG=00000000 DATA=04500593
Set 5 - Way 1: V=0 D=x TAG=Xxxxxxxx DATA=xxxxxxxx
Set 6 - Way 0: V=1 D=0 TAG=00000000 DATA=00c10283
Set 6 - Way 1: V=0 D=x TAG=Xxxxxxxx DATA=xxxxxxxx
Set 7 - Way 0: V=1 D=0 TAG=00000000 DATA=04500593
Set 7 - Way 1: V=0 D=x TAG=Xxxxxxxx DATA=xxxxxxxx
added 0000002c...
Set 0 - Way 0: V=1 D=0 TAG=00000000 DATA=04500594
Set 0 - Way 1: V=1 D=0 TAG=00000001 DATA=04500593
Set 1 - Way 0: V=1 D=0 TAG=00000000 DATA=04500593
Set 1 - Way 1: V=1 D=0 TAG=00000001 DATA=04500593
Set 2 - Way 0: V=1 D=0 TAG=00000000 DATA=01000093
Set 2 - Way 1: V=1 D=0 TAG=00000001 DATA=04500593
Set 3 - Way 0: V=1 D=0 TAG=00000001 DATA=04500593
Set 3 - Way 1: V=0 D=x TAG=Xxxxxxxx DATA=xxxxxxxx
Set 4 - Way 0: V=1 D=0 TAG=00000000 DATA=04500593
Set 4 - Way 1: V=0 D=x TAG=Xxxxxxxx DATA=xxxxxxxx
Set 5 - Way 0: V=1 D=0 TAG=00000000 DATA=04500593
Set 5 - Way 1: V=0 D=x TAG=Xxxxxxxx DATA=xxxxxxxx
Set 6 - Way 0: V=1 D=0 TAG=00000000 DATA=00c10283
Set 6 - Way 1: V=0 D=x TAG=Xxxxxxxx DATA=xxxxxxxx
Set 7 - Way 0: V=1 D=0 TAG=00000000 DATA=04500593
Set 7 - Way 1: V=0 D=x TAG=Xxxxxxxx DATA=xxxxxxxx
added 00000030...
Set 0 - Way 0: V=1 D=0 TAG=00000000 DATA=04500594
Set 0 - Way 1: V=1 D=0 TAG=00000001 DATA=04500593
Set 1 - Way 0: V=1 D=0 TAG=00000000 DATA=04500593
Set 1 - Way 1: V=1 D=0 TAG=00000001 DATA=04500593
Set 2 - Way 0: V=1 D=0 TAG=00000000 DATA=01000093
Set 2 - Way 1: V=1 D=0 TAG=00000001 DATA=04500593
Set 3 - Way 0: V=1 D=0 TAG=00000001 DATA=04500593
Set 3 - Way 1: V=0 D=x TAG=Xxxxxxxx DATA=xxxxxxxx
Set 4 - Way 0: V=1 D=0 TAG=00000000 DATA=04500593
Set 4 - Way 1: V=1 D=0 TAG=00000001 DATA=04500593
Set 5 - Way 0: V=1 D=0 TAG=00000000 DATA=04500593
Set 5 - Way 1: V=0 D=x TAG=Xxxxxxxx DATA=xxxxxxxx
Set 6 - Way 0: V=1 D=0 TAG=00000000 DATA=00c10283
Set 6 - Way 1: V=0 D=x TAG=Xxxxxxxx DATA=xxxxxxxx
Set 7 - Way 0: V=1 D=0 TAG=00000000 DATA=04500593
Set 7 - Way 1: V=0 D=x TAG=Xxxxxxxx DATA=xxxxxxxx
added 00000034...
Set 0 - Way 0: V=1 D=0 TAG=00000000 DATA=04500594
Set 0 - Way 1: V=1 D=0 TAG=00000001 DATA=04500593
Set 1 - Way 0: V=1 D=0 TAG=00000000 DATA=04500593
Set 1 - Way 1: V=1 D=0 TAG=00000001 DATA=04500593
Set 2 - Way 0: V=1 D=0 TAG=00000000 DATA=01000093
Set 2 - Way 1: V=1 D=0 TAG=00000001 DATA=04500593
Set 3 - Way 0: V=1 D=0 TAG=00000001 DATA=04500593
Set 3 - Way 1: V=0 D=x TAG=Xxxxxxxx DATA=xxxxxxxx
Set 4 - Way 0: V=1 D=0 TAG=00000000 DATA=04500593
Set 4 - Way 1: V=1 D=0 TAG=00000001 DATA=04500593
Set 5 - Way 0: V=1 D=0 TAG=00000000 DATA=04500593
Set 5 - Way 1: V=1 D=0 TAG=00000001 DATA=fddff0ef
Set 6 - Way 0: V=1 D=0 TAG=00000000 DATA=00c10283
Set 6 - Way 1: V=0 D=x TAG=Xxxxxxxx DATA=xxxxxxxx
Set 7 - Way 0: V=1 D=0 TAG=00000000 DATA=04500593
Set 7 - Way 1: V=0 D=x TAG=Xxxxxxxx DATA=xxxxxxxx
added 00000038...
Set 0 - Way 0: V=1 D=0 TAG=00000000 DATA=04500594
Set 0 - Way 1: V=1 D=0 TAG=00000001 DATA=04500593
Set 1 - Way 0: V=1 D=0 TAG=00000000 DATA=04500593
Set 1 - Way 1: V=1 D=0 TAG=00000001 DATA=04500593
Set 2 - Way 0: V=1 D=0 TAG=00000000 DATA=01000093
Set 2 - Way 1: V=1 D=0 TAG=00000001 DATA=04500593
Set 3 - Way 0: V=1 D=0 TAG=00000001 DATA=04500593
Set 3 - Way 1: V=0 D=x TAG=Xxxxxxxx DATA=xxxxxxxx
Set 4 - Way 0: V=1 D=0 TAG=00000000 DATA=04500593
Set 4 - Way 1: V=1 D=0 TAG=00000001 DATA=04500593
Set 5 - Way 0: V=1 D=0 TAG=00000000 DATA=04500593
Set 5 - Way 1: V=1 D=0 TAG=00000001 DATA=fddff0ef
Set 6 - Way 0: V=1 D=0 TAG=00000000 DATA=00c10283
Set 6 - Way 1: V=1 D=0 TAG=00000001 DATA=00250513
Set 7 - Way 0: V=1 D=0 TAG=00000000 DATA=04500593
Set 7 - Way 1: V=0 D=x TAG=Xxxxxxxx DATA=xxxxxxxx
added 0000003c...
Set 0 - Way 0: V=1 D=0 TAG=00000000 DATA=04500594
Set 0 - Way 1: V=1 D=0 TAG=00000001 DATA=04500593
Set 1 - Way 0: V=1 D=0 TAG=00000000 DATA=04500593
Set 1 - Way 1: V=1 D=0 TAG=00000001 DATA=04500593
Set 2 - Way 0: V=1 D=0 TAG=00000000 DATA=01000093
Set 2 - Way 1: V=1 D=0 TAG=00000001 DATA=04500593
Set 3 - Way 0: V=1 D=0 TAG=00000001 DATA=04500593
Set 3 - Way 1: V=0 D=x TAG=Xxxxxxxx DATA=xxxxxxxx
Set 4 - Way 0: V=1 D=0 TAG=00000000 DATA=04500593
Set 4 - Way 1: V=1 D=0 TAG=00000001 DATA=04500593
Set 5 - Way 0: V=1 D=0 TAG=00000000 DATA=04500593
Set 5 - Way 1: V=1 D=0 TAG=00000001 DATA=fddff0ef
Set 6 - Way 0: V=1 D=0 TAG=00000000 DATA=00c10283
Set 6 - Way 1: V=1 D=0 TAG=00000001 DATA=00250513
Set 7 - Way 0: V=1 D=0 TAG=00000000 DATA=04500593
Set 7 - Way 1: V=1 D=0 TAG=00000001 DATA=05800593
added 00000040...
** VVP Stop(0) **
** Flushing output streams.
** Current simulation time is 43729 ticks.
> finish
** Continue **
