Testbench/ZSOC.vcd
$date
	Sun Aug 24 20:31:25 2025
$end
$version
	Icarus Verilog
$end
$timescale
	1ns
$end
$scope module test $end
$scope module top1 $end
$var wire 1 ! mext_irq $end
$var wire 1 " msw_irq $end
$var wire 1 # mtimer_irq $end
$var wire 1 $ write_pc $end
$var wire 1 % wen $end
$var wire 1 & ren $end
$var wire 1 ' overflow $end
$var wire 1 ( memReady2 $end
$var wire 1 ) memReady1 $end
$var wire 32 * instruction [31:0] $end
$var wire 1 + instr_en $end
$var wire 32 , dataout_cpu [31:0] $end
$var wire 32 - datain_cpu [31:0] $end
$var wire 32 . data_addr [31:0] $end
$var wire 4 / byte_selector [3:0] $end
$var wire 32 0 PC [31:0] $end
$var reg 1 1 cpu_clk $end
$var reg 1 2 reset $end
$scope module cpu1 $end
$var wire 32 3 DMemOut [31:0] $end
$var wire 32 4 PC_out [31:0] $end
$var wire 1 5 bubble_memwb $end
$var wire 4 6 byte_select [3:0] $end
$var wire 1 1 clock $end
$var wire 32 7 data_out [31:0] $end
$var wire 1 ! external_interrupt $end
$var wire 32 8 instr [31:0] $end
$var wire 1 9 memReady $end
$var wire 1 & ren $end
$var wire 1 2 reset $end
$var wire 1 " software_interrupt $end
$var wire 1 # timer_interrupt $end
$var wire 1 % wen $end
$var wire 1 $ write_pc_out $end
$var wire 1 : write_pc $end
$var wire 1 ; write_memwb $end
$var wire 1 < write_ifid $end
$var wire 1 = write_idex $end
$var wire 1 > write_exmem $end
$var wire 1 ? trapdiv $end
$var wire 1 @ trap_waiting $end
$var wire 32 A trap_vector [31:0] $end
$var wire 1 B trap_in_ID $end
$var wire 1 C syscall $end
$var wire 32 D signExtend [31:0] $end
$var wire 2 E reg_type [1:0] $end
$var wire 32 F rdB [31:0] $end
$var wire 32 G rdA [31:0] $end
$var wire 1 ' overflow $end
$var wire 7 H opcode [6:0] $end
$var wire 1 I int_taken $end
$var wire 5 J instr_rs2 [4:0] $end
$var wire 5 K instr_rs1 [4:0] $end
$var wire 5 L instr_rd [4:0] $end
$var wire 32 M instr_in [31:0] $end
$var wire 1 + instr_en $end
$var wire 1 N inA_is_PC $end
$var wire 32 O imm_z [31:0] $end
$var wire 32 P imm_u [31:0] $end
$var wire 32 Q imm_s [31:0] $end
$var wire 32 R imm_j [31:0] $end
$var wire 32 S imm_i [31:0] $end
$var wire 32 T imm_b [31:0] $end
$var wire 7 U funct7 [6:0] $end
$var wire 4 V funct3 [3:0] $end
$var wire 1 W flushPipeline $end
$var wire 32 X divres [31:0] $end
$var wire 32 Y divrem [31:0] $end
$var wire 6 Z divcy [5:0] $end
$var wire 32 [ data_in [31:0] $end
$var wire 32 \ data_addr [31:0] $end
$var wire 1 ] csr_immidiate $end
$var wire 32 ^ csr_data [31:0] $end
$var wire 12 _ csr_addr [11:0] $end
$var wire 4 ` byte_select_vector [3:0] $end
$var wire 32 a bypassOutB [31:0] $end
$var wire 32 b bypassOutA [31:0] $end
$var wire 1 c bubble_ifid $end
$var wire 1 d bubble_idex $end
$var wire 1 e bubble_exmem $end
$var wire 1 f branch_taken $end
$var wire 1 g Zero $end
$var wire 5 h RegWriteAddr [4:0] $end
$var wire 1 i RegWrite $end
$var wire 1 j RegDst $end
$var wire 1 k PCSrc $end
$var wire 32 l MemWriteData [31:0] $end
$var wire 1 m MemWrite $end
$var wire 1 n MemToReg $end
$var wire 1 o MemRead $end
$var wire 32 p MemOut [31:0] $end
$var wire 1 q JumpJALR $end
$var wire 32 r JumpAddress [31:0] $end
$var wire 1 s Jump $end
$var wire 1 t FPUOut $end
$var wire 2 u FPUOp [1:0] $end
$var wire 4 v EXcntrl [3:0] $end
$var wire 32 w BranchInA [31:0] $end
$var wire 32 x BranchALUOut [31:0] $end
$var wire 1 y Branch $end
$var wire 1 z ALUSrc $end
$var wire 32 { ALUOut [31:0] $end
$var wire 5 | ALUOp [4:0] $end
$var reg 32 } ALUInA [31:0] $end
$var reg 32 ~ ALUInB [31:0] $end
$var reg 32 !" EXMEM_ALUOut [31:0] $end
$var reg 1 "" EXMEM_Branch $end
$var reg 32 #" EXMEM_BranchALUOut [31:0] $end
$var reg 1 $" EXMEM_JumpJALR $end
$var reg 1 %" EXMEM_MemRead $end
$var reg 1 &" EXMEM_MemToReg $end
$var reg 1 '" EXMEM_MemWrite $end
$var reg 32 (" EXMEM_MemWriteData [31:0] $end
$var reg 32 )" EXMEM_PC [31:0] $end
$var reg 1 *" EXMEM_RegWrite $end
$var reg 5 +" EXMEM_RegWriteAddr [4:0] $end
$var reg 1 ," EXMEM_Zero $end
$var reg 12 -" EXMEM_csr_addr [11:0] $end
$var reg 32 ." EXMEM_csr_data [31:0] $end
$var reg 1 /" EXMEM_csr_write_allowed $end
$var reg 3 0" EXMEM_funct3 [2:0] $end
$var reg 32 1" EXMEM_instr [31:0] $end
$var reg 2 2" EXMEM_reg_type [1:0] $end
$var reg 1 3" IDEX_ALUSrc $end
$var reg 1 4" IDEX_Branch $end
$var reg 4 5" IDEX_EXcntrl [3:0] $end
$var reg 1 6" IDEX_Jump $end
$var reg 1 7" IDEX_JumpJALR $end
$var reg 1 8" IDEX_MemRead $end
$var reg 1 9" IDEX_MemToReg $end
$var reg 1 :" IDEX_MemWrite $end
$var reg 32 ;" IDEX_PC [31:0] $end
$var reg 1 <" IDEX_RegDst $end
$var reg 1 =" IDEX_RegWrite $end
$var reg 12 >" IDEX_csr_addr [11:0] $end
$var reg 1 ?" IDEX_csr_write_allowed $end
$var reg 3 @" IDEX_funct3 [2:0] $end
$var reg 7 A" IDEX_funct7 [6:0] $end
$var reg 1 B" IDEX_inA_is_PC $end
$var reg 32 C" IDEX_instr [31:0] $end
$var reg 5 D" IDEX_instr_rd [4:0] $end
$var reg 5 E" IDEX_instr_rs1 [4:0] $end
$var reg 5 F" IDEX_instr_rs2 [4:0] $end
$var reg 32 G" IDEX_rdA [31:0] $end
$var reg 32 H" IDEX_rdB [31:0] $end
$var reg 2 I" IDEX_reg_type [1:0] $end
$var reg 32 J" IDEX_signExtend [31:0] $end
$var reg 32 K" IF2_instr [31:0] $end
$var reg 32 L" IFID_PC [31:0] $end
$var reg 32 M" IFID_instr [31:0] $end
$var reg 32 N" MEMWB_ALUOut [31:0] $end
$var reg 32 O" MEMWB_DMemOut [31:0] $end
$var reg 1 P" MEMWB_MemToReg $end
$var reg 32 Q" MEMWB_PC [31:0] $end
$var reg 1 R" MEMWB_RegWrite $end
$var reg 5 S" MEMWB_RegWriteAddr [4:0] $end
$var reg 12 T" MEMWB_csr_addr [11:0] $end
$var reg 32 U" MEMWB_csr_data [31:0] $end
$var reg 1 V" MEMWB_csr_write_allowed $end
$var reg 3 W" MEMWB_funct3 [2:0] $end
$var reg 32 X" MEMWB_instr [31:0] $end
$var reg 2 Y" MEMWB_reg_type [1:0] $end
$var reg 32 Z" PC [31:0] $end
$var reg 32 [" PC_IF2 [31:0] $end
$var reg 32 \" PC_new [31:0] $end
$var reg 32 ]" WB_csr_data [31:0] $end
$var reg 1 ^" bubble_ifid_delayed $end
$var reg 1 _" csr_write_allowed $end
$var reg 32 `" delayed_instr [31:0] $end
$var reg 1 a" keepDelayInstr $end
$var reg 6 b" local_divcy [5:0] $end
$var reg 1 c" mepc_state $end
$var reg 32 d" newmepc [31:0] $end
$var reg 2040 e" pc_string [2039:0] $end
$var reg 32 f" wRegData [31:0] $end
$var reg 1 g" write_pc_delayed $end
$scope module DU $end
$var wire 1 1 clk $end
$var wire 6 h" cpu_divcy [5:0] $end
$var wire 32 i" inA [31:0] $end
$var wire 32 j" inB [31:0] $end
$var wire 1 k" reset $end
$var wire 1 ? trapdiv $end
$var wire 5 l" ALUOp [4:0] $end
$var reg 32 m" divisor [31:0] $end
$var reg 6 n" du_divcy [5:0] $end
$var reg 32 o" quo [31:0] $end
$var reg 64 p" rediv [63:0] $end
$var reg 32 q" rem [31:0] $end
$var reg 1 r" sign $end
$var integer 32 s" i [31:0] $end
$upscope $end
$scope module FPU $end
$var wire 32 t" number1 [31:0] $end
$var wire 32 u" number2 [31:0] $end
$var wire 1 v" op $end
$var wire 1 w" s2 $end
$var wire 1 x" s1 $end
$var wire 32 y" out [31:0] $end
$var wire 23 z" m_small [22:0] $end
$var wire 23 {" m_large [22:0] $end
$var wire 23 |" m_final [22:0] $end
$var wire 23 }" m2 [22:0] $end
$var wire 23 ~" m1 [22:0] $end
$var wire 26 !# fl2_intermediate [25:0] $end
$var wire 27 "# fl2 [26:0] $end
$var wire 27 ## fl1 [26:0] $end
$var wire 8 $# fexp [7:0] $end
$var wire 8 %# expdiff [7:0] $end
$var wire 8 &# e2 [7:0] $end
$var wire 8 '# e1 [7:0] $end
$var wire 8 (# d [7:0] $end
$var wire 1 )# cout $end
$var wire 27 *# adder_out [26:0] $end
$var reg 1 +# count $end
$var reg 8 ,# exp4 [7:0] $end
$var reg 1 -# f_sign $end
$var reg 27 .# out4 [26:0] $end
$var reg 1 /# sticky $end
$var integer 32 0# i [31:0] $end
$upscope $end
$scope module SignExtendSelector $end
$var wire 7 1# opcode [6:0] $end
$var wire 32 2# imm_z [31:0] $end
$var wire 32 3# imm_u [31:0] $end
$var wire 32 4# imm_s [31:0] $end
$var wire 32 5# imm_j [31:0] $end
$var wire 32 6# imm_i [31:0] $end
$var wire 32 7# imm_b [31:0] $end
$var reg 32 8# out [31:0] $end
$upscope $end
$scope module control_branch $end
$var wire 1 "" Branch $end
$var wire 3 9# funct3 [2:0] $end
$var wire 1 :# sign $end
$var wire 1 ," zero $end
$var reg 1 f branch_taken $end
$upscope $end
$scope module control_bypass_ex $end
$var wire 32 ;# EXMEM_ALUOut [31:0] $end
$var wire 32 <# WB_csr_data [31:0] $end
$var wire 32 =# exmem_csr_addr [31:0] $end
$var wire 1 /" exmem_csr_write_allowed $end
$var wire 5 ># exmem_rd [4:0] $end
$var wire 2 ?# exmem_reg_type [1:0] $end
$var wire 1 *" exmem_regwrite $end
$var wire 32 @# idex_csr_addr [31:0] $end
$var wire 5 A# idex_rd [4:0] $end
$var wire 32 B# idex_rdA [31:0] $end
$var wire 32 C# idex_rdB [31:0] $end
$var wire 2 D# idex_reg_type [1:0] $end
$var wire 5 E# idex_rs1 [4:0] $end
$var wire 5 F# idex_rs2 [4:0] $end
$var wire 32 G# memwb_csr_addr [31:0] $end
$var wire 1 V" memwb_csr_write_allowed $end
$var wire 5 H# memwb_rd [4:0] $end
$var wire 2 I# memwb_reg_type [1:0] $end
$var wire 1 R" memwb_regwrite $end
$var wire 32 J# wRegData [31:0] $end
$var wire 1 ] csr_immidiate $end
$var wire 32 K# csr_data [31:0] $end
$var reg 2 L# bypassA [1:0] $end
$var reg 2 M# bypassB [1:0] $end
$var reg 32 N# bypassOutA [31:0] $end
$var reg 32 O# bypassOutB [31:0] $end
$upscope $end
$scope module control_ex $end
$var wire 4 P# EXcntrl [3:0] $end
$var wire 3 Q# funct3 [2:0] $end
$var wire 7 R# funct7 [6:0] $end
$var reg 5 S# ALUOp [4:0] $end
$var reg 2 T# FPUOp [1:0] $end
$var reg 1 ] csr_immidiate $end
$upscope $end
$scope module control_main $end
$var wire 7 U# opcode [6:0] $end
$var reg 1 z ALUSrc $end
$var reg 1 y Branch $end
$var reg 4 V# EXcntrl [3:0] $end
$var reg 1 s Jump $end
$var reg 1 q JumpJALR $end
$var reg 1 o MemRead $end
$var reg 1 n MemToReg $end
$var reg 1 m MemWrite $end
$var reg 1 j RegDst $end
$var reg 1 i RegWrite $end
$var reg 1 N inA_is_PC $end
$var reg 2 W# reg_type [1:0] $end
$upscope $end
$scope module control_stall_id $end
$var wire 1 "" EXMEM_Branch $end
$var wire 1 4" IDEX_Branch $end
$var wire 1 s Jump $end
$var wire 1 k PCSrc $end
$var wire 1 X# divcy $end
$var wire 1 :" idex_memWrite $end
$var wire 1 8" idex_memread $end
$var wire 5 Y# idex_rd [4:0] $end
$var wire 5 Z# ifid_rs [4:0] $end
$var wire 5 [# ifid_rt [4:0] $end
$var wire 1 o memRead $end
$var wire 1 9 memReady $end
$var wire 1 C syscall $end
$var wire 1 ? trapdiv $end
$var wire 1 B trap_in_ID $end
$var wire 1 I int_trap $end
$var wire 1 W flushPipeline $end
$var reg 1 e bubble_exmem $end
$var reg 1 d bubble_idex $end
$var reg 1 c bubble_ifid $end
$var reg 1 \# bubble_memwb $end
$var reg 1 + instr_en $end
$var reg 1 ]# memStalled $end
$var reg 4 ^# state [3:0] $end
$var reg 1 _# suppressTrap $end
$var reg 1 @ trap_waiting $end
$var reg 1 > write_exmem $end
$var reg 1 = write_idex $end
$var reg 1 < write_ifid $end
$var reg 1 ; write_memwb $end
$var reg 1 : write_pc $end
$upscope $end
$scope module cpu_alu $end
$var wire 32 `# inA [31:0] $end
$var wire 32 a# inB [31:0] $end
$var wire 5 b# op [4:0] $end
$var wire 1 g zero $end
$var wire 33 c# unsigned_sub [32:0] $end
$var wire 1 ' overflow $end
$var wire 32 d# out_val [31:0] $end
$var wire 32 e# out [31:0] $end
$upscope $end
$scope module cpu_regs $end
$var wire 1 1 clock $end
$var wire 1 f# floatingID $end
$var wire 1 g# floatingWB $end
$var wire 5 h# raA [4:0] $end
$var wire 5 i# raB [4:0] $end
$var wire 1 2 reset $end
$var wire 5 j# wa [4:0] $end
$var wire 32 k# wd [31:0] $end
$var wire 1 R" wen $end
$var wire 32 l# rdB [31:0] $end
$var wire 32 m# rdA [31:0] $end
$var integer 32 n# i [31:0] $end
$upscope $end
$scope module csrFile $end
$var wire 32 o# IDEX_PC [31:0] $end
$var wire 32 p# PC [31:0] $end
$var wire 1 1 clock $end
$var wire 12 q# csrAddr [11:0] $end
$var wire 12 r# csrWAddr [11:0] $end
$var wire 1 ! external_interrupt $end
$var wire 5 s# fpflags [4:0] $end
$var wire 32 t# mip [31:0] $end
$var wire 1 u# ren $end
$var wire 1 2 reset $end
$var wire 1 " software_interrupt $end
$var wire 1 @ syscall $end
$var wire 1 # timer_interrupt $end
$var wire 32 v# wd [31:0] $end
$var wire 1 V" wen $end
$var wire 1 : write_pc $end
$var reg 3 w# enableInterrupts [2:0] $end
$var reg 8 x# fcsr [7:0] $end
$var reg 1 W flushPipeline $end
$var reg 1 I int_taken $end
$var reg 32 y# mcause [31:0] $end
$var reg 32 z# mepc [31:0] $end
$var reg 32 {# mie [31:0] $end
$var reg 32 |# misa [31:0] $end
$var reg 32 }# mscratch [31:0] $end
$var reg 32 ~# mstatus [31:0] $end
$var reg 32 !$ mstatush [31:0] $end
$var reg 32 "$ mtval [31:0] $end
$var reg 32 #$ mtvec [31:0] $end
$var reg 4 $$ pipeline_flush_count [3:0] $end
$var reg 32 %$ rd [31:0] $end
$var reg 1 B trap_in_ID $end
$var reg 32 &$ trap_vector [31:0] $end
$upscope $end
$scope module mem_read_selector $end
$var wire 32 '$ DMemOut [31:0] $end
$var wire 2 ($ byte_index [1:0] $end
$var wire 3 )$ mem_select [2:0] $end
$var wire 16 *$ half [15:0] $end
$var wire 8 +$ byte_sel [7:0] $end
$var reg 32 ,$ out [31:0] $end
$upscope $end
$scope module mem_write_selector $end
$var wire 32 -$ ALUin [31:0] $end
$var wire 3 .$ mem_select [2:0] $end
$var wire 2 /$ offset [1:0] $end
$var reg 4 0$ byte_select_vector [3:0] $end
$var reg 32 1$ out [31:0] $end
$upscope $end
$scope module signExtendUnit $end
$var wire 25 2$ instr [24:0] $end
$var wire 32 3$ imm_z [31:0] $end
$var wire 32 4$ imm_u [31:0] $end
$var wire 32 5$ imm_s [31:0] $end
$var wire 32 6$ imm_j [31:0] $end
$var wire 32 7$ imm_i [31:0] $end
$var wire 32 8$ imm_b [31:0] $end
$upscope $end
$upscope $end
$scope module dcache $end
$var wire 32 9$ address [31:0] $end
$var wire 4 :$ byte_select_vector [3:0] $end
$var wire 1 1 clk $end
$var wire 32 ;$ datain [31:0] $end
$var wire 1 & ren $end
$var wire 1 <$ reset $end
$var wire 1 % wen $end
$var wire 1 =$ miss_cache $end
$var wire 1 >$ memwr_cache $end
$var wire 1 ?$ memsig1 $end
$var wire 32 @$ dataout_mem [31:0] $end
$var wire 32 A$ dataout_cache [31:0] $end
$var wire 32 B$ cache_dataout [31:0] $end
$var reg 32 C$ dataout [31:0] $end
$var reg 1 ( memReady $end
$var reg 32 D$ old_address1 [31:0] $end
$scope module cache_inst $end
$var wire 32 E$ address [31:0] $end
$var wire 4 F$ byte_selector [3:0] $end
$var wire 1 1 clk $end
$var wire 32 G$ datawr [31:0] $end
$var wire 32 H$ old_address [31:0] $end
$var wire 1 I$ ren $end
$var wire 1 <$ reset $end
$var wire 1 % wen $end
$var wire 32 J$ datamemin [31:0] $end
$var reg 8 K$ LRUbits [7:0] $end
$var reg 32 L$ datamemout [31:0] $end
$var reg 32 M$ dataout [31:0] $end
$var reg 1 >$ memwr $end
$var reg 1 =$ miss $end
$var integer 32 N$ i [31:0] $end
$upscope $end
$scope module memory_inst $end
$var wire 32 O$ address [31:0] $end
$var wire 4 P$ byte_selector [3:0] $end
$var wire 1 1 clk $end
$var wire 32 Q$ datain [31:0] $end
$var wire 1 =$ ren $end
$var wire 1 >$ wen $end
$var reg 32 R$ dataout [31:0] $end
$var reg 1 ?$ memsig $end
$var integer 32 S$ b [31:0] $end
$upscope $end
$upscope $end
$scope module icache $end
$var wire 32 T$ address [31:0] $end
$var wire 4 U$ byte_select_vector [3:0] $end
$var wire 1 1 clk $end
$var wire 32 V$ datain [31:0] $end
$var wire 1 + ren $end
$var wire 1 W$ reset $end
$var wire 1 X$ wen $end
$var wire 1 Y$ miss_cache $end
$var wire 1 Z$ memwr_cache $end
$var wire 1 [$ memsig1 $end
$var wire 32 \$ dataout_mem [31:0] $end
$var wire 32 ]$ dataout_cache [31:0] $end
$var wire 32 ^$ cache_dataout [31:0] $end
$var reg 32 _$ dataout [31:0] $end
$var reg 1 ) memReady $end
$var reg 32 `$ old_address1 [31:0] $end
$scope module cache_inst $end
$var wire 32 a$ address [31:0] $end
$var wire 4 b$ byte_selector [3:0] $end
$var wire 1 1 clk $end
$var wire 32 c$ datawr [31:0] $end
$var wire 32 d$ old_address [31:0] $end
$var wire 1 e$ ren $end
$var wire 1 W$ reset $end
$var wire 1 X$ wen $end
$var wire 32 f$ datamemin [31:0] $end
$var reg 8 g$ LRUbits [7:0] $end
$var reg 32 h$ datamemout [31:0] $end
$var reg 32 i$ dataout [31:0] $end
$var reg 1 Z$ memwr $end
$var reg 1 Y$ miss $end
$var integer 32 j$ i [31:0] $end
$upscope $end
$scope module memory_inst $end
$var wire 32 k$ address [31:0] $end
$var wire 4 l$ byte_selector [3:0] $end
$var wire 1 1 clk $end
$var wire 32 m$ datain [31:0] $end
$var wire 1 Y$ ren $end
$var wire 1 Z$ wen $end
$var reg 32 n$ dataout [31:0] $end
$var reg 1 [$ memsig $end
$var integer 32 o$ i [31:0] $end
$upscope $end
$upscope $end
$upscope $end
$upscope $end
$enddefinitions $end
#0
$dumpvars
b10000000000 o$
bx n$
bx m$
b1 l$
b0 k$
b1000 j$
bx i$
bx h$
b0 g$
bx f$
1e$
b0 d$
b0 c$
b1 b$
b0 a$
b0 `$
bx _$
bx ^$
bx ]$
bx \$
x[$
0Z$
0Y$
0X$
1W$
b0 V$
b1 U$
b0 T$
b10000000000 S$
bx R$
bx Q$
b1 P$
b0 O$
b1000 N$
bx M$
bx L$
b0 K$
bx J$
0I$
b0 H$
b0 G$
b1 F$
b0 E$
b0 D$
bx C$
bx B$
bx A$
bx @$
x?$
0>$
0=$
1<$
b0 ;$
b1 :$
b0 9$
b0 8$
b0 7$
b0 6$
b0 5$
b0 4$
b0 3$
b0 2$
b0 1$
b1 0$
b0 /$
b0 .$
b0 -$
b0 ,$
b0 +$
b0 *$
b0 )$
b0 ($
b0 '$
b0 &$
bx %$
b1101 $$
b0 #$
b0 "$
b0 !$
b0 ~#
b0 }#
b1000000000000000000000100000000 |#
b0 {#
b0 z#
b0 y#
b0 x#
b111 w#
b0 v#
0u#
b0z000z000z000 t#
bz s#
b0 r#
b0 q#
b0 p#
b0 o#
b100000 n#
b0 m#
b0 l#
b0 k#
b0 j#
b0 i#
b0 h#
0g#
0f#
b0 e#
b0 d#
b0 c#
b0 b#
b0 a#
b0 `#
0_#
b0 ^#
0]#
0\#
b0 [#
b0 Z#
b0 Y#
0X#
b0 W#
b0 V#
b0 U#
b0 T#
b0 S#
b0 R#
b0 Q#
b0 P#
b0 O#
b0 N#
b0 M#
b0 L#
bx K#
b0 J#
b0 I#
b0 H#
b0 G#
b0 F#
b0 E#
b0 D#
b0 C#
b0 B#
b0 A#
b0 @#
b0 ?#
b0 >#
b0 =#
b0 <#
b0 ;#
0:#
b0 9#
b0 8#
b0 7#
b0 6#
b0 5#
b0 4#
b0 3#
b0 2#
b0 1#
bx 0#
x/#
bx .#
x-#
bx ,#
x+#
bx *#
x)#
b0 (#
b0 '#
b0 &#
b0 %#
b0 $#
b100000000000000000000000000 ##
b10000000000000000000000000x "#
b10000000000000000000000000 !#
b0 ~"
b0 }"
bx |"
b0 {"
b0 z"
bx y"
0x"
0w"
0v"
b0 u"
b0 t"
bx s"
0r"
b0 q"
b0 p"
b0 o"
b100000 n"
b0 m"
b0 l"
1k"
b0 j"
b0 i"
b100000 h"
0g"
b0 f"
b101001001100101011100110110010101110100 e"
b0 d"
0c"
b100000 b"
0a"
bx `"
0_"
0^"
b0 ]"
b100 \"
b0 ["
b0 Z"
b0 Y"
b0 X"
b0 W"
0V"
b0 U"
b0 T"
b0 S"
0R"
b0 Q"
0P"
b0 O"
b0 N"
b0 M"
b0 L"
bx K"
b0 J"
b0 I"
b0 H"
b0 G"
b0 F"
b0 E"
b0 D"
b0 C"
0B"
b0 A"
b0 @"
0?"
b0 >"
0="
0<"
b0 ;"
0:"
09"
08"
07"
06"
b0 5"
04"
03"
b0 2"
b0 1"
b0 0"
0/"
b0 ."
b0 -"
0,"
b0 +"
0*"
b11111111111111111111111111111111 )"
b0 ("
0'"
0&"
0%"
0$"
b0 #"
0""
b0 !"
b0 ~
b0 }
b0 |
b0 {
0z
0y
b0 x
b0 w
b0 v
b0 u
xt
0s
b0 r
0q
b0 p
0o
0n
0m
b0 l
0k
0j
0i
b0 h
1g
0f
0e
0d
0c
b0 b
b0 a
b1 `
b0 _
bx ^
0]
b0 \
bx [
b100000 Z
b0 Y
b0 X
0W
b0 V
b0 U
b0 T
b0 S
b0 R
b0 Q
b0 P
b0 O
0N
bx M
b0 L
b0 K
b0 J
0I
b0 H
b0 G
b0 F
b0 E
b0 D
0C
xB
b0 A
0@
1?
1>
1=
1<
1;
1:
19
bx 8
b0 7
b1 6
z5
b0 4
bx 3
02
01
b0 0
b1 /
b0 .
bx -
b0 ,
1+
bx *
1)
1(
0'
0&
0%
1$
z#
z"
z!
$end
#1
0e$
0[$
0?$
1Y$
b100000 n#
b1000 N$
b1000 j$
11
#2
0$
0:
0<
0=
0>
0;
1]#
b1 ^#
09
0)
01
0W$
0<$
0k"
12
#3
0]#
1;
1>
1=
1<
1$
1:
b0 ^#
19
1)
1e$
b0 ^
b0 K#
b0 %$
1a"
1[$
b1000000010000010000111 \$
b1000000010000010000111 f$
b1000000010000010000111 n$
0Y$
b1000 j$
b1 g$
11
#4
01
#5
0$
0:
0<
0=
0>
0;
1]#
b1 ^#
09
0)
0@
xC
bx p
bx ,$
bx G
bx m#
bx F
bx l#
bx +$
bx *$
bx S
bx 6#
bx 7$
bx Q
bx 4#
bx 5$
bx0 T
bx0 7#
bx0 8$
bx000000000000 P
bx000000000000 3#
bx000000000000 4$
bx0 R
bx0 5#
bx0 6$
b0xxxxx O
b0xxxxx 2#
b0xxxxx 3$
0e$
bx H
bx 1#
bx U#
b0xxx V
bx U
bx K
bx Z#
bx h#
bx _
bx q#
bx J
bx [#
bx i#
bx L
bx 2$
b1 k$
b1 a$
b1000 \"
b1000000010000010000111 K"
b11111111111111111111111111111111 Q"
bx O"
bx '$
b0 )"
1,"
bx M"
0a"
b0 `"
1g"
b100 0
b100 4
b100 T$
b100 Z"
b100 p#
0B
0[$
b1000000010000010000111 8
b1000000010000010000111 *
b1000000010000010000111 M
b1000000010000010000111 _$
1Y$
11
#6
01
#7
x@
0]#
1;
1>
1=
1<
1$
1:
b0 ^#
19
1)
1e$
b1 d$
b1000000010000010000111 `"
1a"
0g"
1[$
b11000000010000100000111 \$
b11000000010000100000111 f$
b11000000010000100000111 n$
0Y$
b100 `$
b1000 j$
b11 g$
11
#8
01
#9
0$
0:
0<
0=
0>
0;
1]#
b1 ^#
09
0)
bx %#
bx $#
bx "#
bx !#
bx z"
b1xxxxxxxxxxxxxxxxxxxxxxx000 ##
bx {"
xg
bx {
bx e#
bx d#
x'
xw"
bx }"
bx &#
xx"
bx ~"
bx (#
bx '#
0@
0C
b0 G
b0 m#
b100000000 F
b100000000 l#
bx ~
bx j"
bx u"
bx a#
bx c#
bx }
bx i"
bx t"
bx `#
b10 r
b10 D
b10 8#
b1 v
b1 V#
1i
1z
1n
1o
1j
b11 E
b11 W#
b10 S
b10 6#
b10 7$
b1 Q
b1 4#
b1 5$
b100000000000 T
b100000000000 7#
b100000000000 8$
b1000000010000000000000 P
b1000000010000000000000 3#
b1000000010000000000000 4$
b10000000000010 R
b10000000000010 5#
b10000000000010 6$
b0 O
b0 2#
b0 3$
0e$
bx a
bx O#
bx h
bx b
bx N#
b111 H
b111 1#
b111 U#
b10 V
b0 U
b0 K
b0 Z#
b0 h#
b10 _
b10 q#
b10 J
b10 [#
b10 i#
b1 L
b100000001000001 2$
b1100 \"
b10 k$
b10 a$
b11000000010000100000111 K"
b0 Q"
b0xxxxxxxxxxxx @#
bx >"
bx C"
bx H"
bx C#
bx G"
bx B#
bx A"
bx R#
bx @"
bx Q#
bx F"
bx F#
bx E"
bx E#
bx D"
bx A#
bx Y#
b1000000010000010000111 M"
0a"
b0 `"
b100 ["
1g"
b1000 0
b1000 4
b1000 T$
b1000 Z"
b1000 p#
0[$
b11000000010000100000111 8
b11000000010000100000111 *
b11000000010000100000111 M
b11000000010000100000111 _$
1Y$
11
#10
01
#11
0]#
1;
1>
1=
1<
1$
1:
b0 ^#
19
1)
1e$
b10 d$
b11000000010000100000111 `"
1a"
0g"
1[$
b1000001000000111010011 \$
b1000001000000111010011 f$
b1000001000000111010011 n$
0Y$
b1000 `$
b1000 j$
b111 g$
11
#12
01
#13
0$
0:
0<
0=
0>
0;
1]#
b1 ^#
09
0)
b10000000000000000000000000x "#
b10000000000000000000000000 !#
b0 %#
b0 z"
b100000000000000000000010000 ##
b10 {"
b0 $#
0g
b10 {
b10 e#
b10 d#
0'
0x"
b0 ~"
b0 (#
b0 '#
b0 F
b0 l#
b110 D
b110 8#
b0 E$
1I$
b111111111111111111111111111111110 c#
b0 }
b0 i"
b0 t"
b0 `#
0w"
b10 }"
b0 &#
b110 S
b110 6#
b110 7$
b10 Q
b10 4#
b10 5$
b10 T
b10 7#
b10 8$
b11000000010000000000000 P
b11000000010000000000000 3#
b11000000010000000000000 4$
b10000000000110 R
b10000000000110 5#
b10000000000110 6$
b1 O
b1 2#
b1 3$
0e$
b1111 /
b1111 6
b1111 :$
b1111 F$
b1111 P$
b1111 U$
b1111 b$
b1111 l$
b1111 `
b1111 0$
bx ,
bx 7
bx ;$
bx G$
bx l
bx 1$
b10 .
b10 \
b10 9$
b10 O$
bx /$
x:#
b100000000 a
b100000000 O#
1&
b1 h
b0 b
b0 N#
b10 ~
b10 j"
b10 u"
b10 a#
b110 _
b110 q#
b110 J
b110 [#
b110 i#
b10 L
b1100000001000010 2$
b10000 \"
b11 k$
b11 a$
b1000001000000111010011 K"
bx 1"
b0xxxxxxxxxxxx =#
bx -"
bx 0"
bx 9#
bx .$
x,"
bx ("
bx -$
bx +"
bx >#
bx !"
bx ;#
b10 @#
b10 >"
b1000000010000010000111 C"
b11 I"
b11 D#
b100000000 H"
b100000000 C#
b0 G"
b0 B#
b0 A"
b0 R#
b10 @"
b10 Q#
1="
19"
18"
13"
b1 5"
b1 P#
1<"
b10 F"
b10 F#
b0 E"
b0 E#
b1 D"
b1 A#
b1 Y#
b10 x
b10 J"
b11000000010000100000111 M"
b1010 r
b100 L"
0a"
b0 `"
b1000 ["
1g"
b1100 0
b1100 4
b1100 T$
b1100 Z"
b1100 p#
0[$
b1000001000000111010011 8
b1000001000000111010011 *
b1000001000000111010011 M
b1000001000000111010011 _$
1Y$
11
#14
01
#15
0(
1)
0I$
1e$
b11 d$
b1000001000000111010011 `"
1a"
0g"
1=$
b10 D$
1[$
b0 \$
b0 f$
b0 n$
0Y$
b1100 `$
b1000 j$
b1111 g$
11
#16
01
#17
1(
0)
1I$
0e$
0=$
0[$
1?$
b110010001000101111111111111111 @$
b110010001000101111111111111111 J$
b110010001000101111111111111111 R$
b0 8
b0 *
b0 M
b0 _$
1Y$
b1000 N$
b1 K$
11
#18
01
#19
0(
1)
0I$
1e$
1=$
b110010001000101111111111111111 3
b110010001000101111111111111111 -
b110010001000101111111111111111 [
b110010001000101111111111111111 C$
0?$
1[$
0Y$
b1000 j$
b111 g$
11
#20
01
#21
0]#
1;
1>
1=
1<
1$
1:
b0 ^#
19
1(
1I$
0=$
0[$
1?$
b1111 g$
b0 ^$
b0 i$
b1000 N$
b0 K$
11
#22
01
